ACCGEN : 5 : 3.0 : Kanahaukka : 74
ACCNIS : 7 : 2.0 : Varpushaukka : 75
ACRARU : 6 : 1.0 : Rastaskerttunen : 264
ACRDUM : 6 : 1.0 : Viitakerttunen : 261
ACRRIS : 5 : 1.0 : Luhtakerttunen : 262
ACRSCH : 6 : 1.0 : Ruokokerttunen : 259
ACRSCI : 5 : 1.0 : Rytikerttunen : 263
ACTHYP : 4 : 1.5 : Rantasipi : 142
AEGCAU : 12 : 1.0 : Pyrstötiainen : 295
AEGFUN : 8 : 2.0 : Helmipöllö : 186
ALAARV : 6 : 1.0 : Kiuru : 208
ALCATT : 8 : 1.0 : Kuningaskalastaja : 190
ALCTOR : 1 : 1.0 : Ruokki : 163
ANAACU : 11 : 1.0 : Jouhisorsa : 46
ANACLY : 11 : 1.0 : Lapasorsa : 48
ANACRE : 11 : 1.0 : Tavi : 44
ANAPEN : 10 : 1.0 : Haapana : 42
ANAPLA : 12 : 1.0 : Sinisorsa : 45
ANAQUE : 10 : 1.0 : Heinätavi : 47
ANASTR : 12 : 1.0 : Harmaasorsa : 43
ANSANS : 9 : 2.0 : Merihanhi : 34
ANSCAE : 6 : 1.0 : Lumihanhi : 36
ANSERY : 7 : 2.0 : Kiljuhanhi : 33
ANSFAB : 6 : 2.0 : Metsähanhi : 30
ANTCAM : 5 : 1.0 : Nummikirvinen : 216
ANTCER : 6 : 1.0 : Lapinkirvinen : 220
ANTPET : 6 : 1.0 : Luotokirvinen : 221
ANTPRA : 6 : 1.0 : Niittykirvinen : 219
ANTTRI : 6 : 1.0 : Metsäkirvinen : 218
APUAPU : 3 : 3.0 : Tervapääsky : 188
AQUCHR : 3 : 4.0 : Kotka : 80
AQUCLA : 3 : 3.0 : Kiljukotka : 79
ARDCIN : 6 : 2.0 : Harmaahaikara : 21
AREINT : 4 : 1.5 : Karikukko : 143
ASIFLA : 13 : 1.5 : Suopöllö : 185
ASIOTU : 7 : 2.0 : Sarvipöllö : 184
AYTFER : 12 : 1.0 : Punasotka : 50
AYTFUL : 13 : 1.0 : Tukkasotka : 52
AYTMAR : 13 : 1.0 : Lapasotka : 53
BOMGAR : 6 : 1.0 : Tilhi : 226
BONBON : 11 : 1.5 : Pyy : 90
BOTSTE : 7 : 2.0 : Kaulushaikara : 14
BRACAN : 10 : 1.5 : Kanadanhanhi : 37
BRALEU : 6 : 1.0 : Valkoposkihanhi : 38
BUBBUB : 4 : 2.5 : Huuhkaja : 176
BUCCLA : 11 : 1.5 : Telkkä : 59
BUTBUT : 4 : 3.5 : Hiirihaukka : 76
BUTLAG : 7 : 3.0 : Piekana : 77
CALALP : 4 : 1.5 : Suosirri : 123
CALLAP : 6 : 1.0 : Lapinsirkku : 350
CALMAR : 4 : 1.5 : Merisirri : 122
CALTEM : 4 : 1.3 : Lapinsirri : 121
CALUTA : 4 : 1.0 : Pikkusirri : 120
CAPEUR : 3 : 2.0 : Kehrääjä : 187
CARCAN : 6 : 1.0 : Hemppo : 338
CARCAR : 6 : 1.0 : Tikli : 336
CARCHL : 7 : 1.0 : Viherpeippo : 335
CARERY : 6 : 1.0 : Punavarpunen : 346
CARHOR : 5 : 1.0 : Tundraurpiainen : 341
CARMEA : 6 : 1.0 : Urpiainen : 340
CARRIS : 6 : 1.0 : Vuorihemppo : 339
CARSPI : 6 : 1.0 : Vihervarpunen : 337
CEPGRY : 2 : 3.5 : Riskilä : 164
CERFAM : 7 : 1.0 : Puukiipijä : 309
CHADUB : 4 : 1.5 : Pikkutylli : 113
CHAHIA : 4 : 1.5 : Tylli : 114
CHAMOR : 3 : 1.5 : Keräkurmitsa : 116
CHLNIG : 4 : 3.0 : Mustatiira : 160
CINCIN : 6 : 1.0 : Koskikara : 227
CIRAER : 6 : 2.0 : Ruskosuohaukka : 70
CIRCYA : 6 : 2.0 : Sinisuohaukka : 71
CIRMAC : 6 : 1.5 : Arosuohaukka : 998
CIRPYG : 5 : 1.5 : Niittysuohaukka : 73
CLAHYE : 10 : 1.0 : Alli : 56
COCCOC : 6 : 1.0 : Nokkavarpunen : 349
COLLIV : 2 : 2.0 : Kesykyyhky : 167
COLOEN : 2 : 2.0 : Uuttukyyhky : 168
COLPAL : 2 : 1.0 : Sepelkyyhky : 169
CORFRU : 6 : 2.0 : Mustavaris : 323
CORMON : 7 : 2.0 : Naakka : 322
CORNIX : 6 : 1.0 : Varis : 324
CORONE : 6 : 1.0 : Varis : 324
CORONEX : 6 : 1.0 : Varis : 324
CORRAX : 6 : 1.0 : Korppi : 325
COTCOT : 13 : 1.0 : Viiriäinen : 97
CRECRE : 13 : 1.0 : Ruisrääkkä : 103
CUCCAN : 1 : 2.5 : Käki : 173
CYGCYG : 7 : 2.0 : Laulujoutsen : 29
CYGOLO : 10 : 2.0 : Kyhmyjoutsen : 27
DELURB : 6 : 1.0 : Räystäspääsky : 214
DENLEU : 6 : 1.0 : Valkoselkätikka : 201
DENMAJ : 7 : 1.0 : Käpytikka : 199
DENMIN : 8 : 1.0 : Pikkutikka : 202
DRYMAR : 6 : 1.0 : Palokärki : 198
EMBAUR : 6 : 1.0 : Kultasirkku : 358
EMBCIT : 6 : 1.0 : Keltasirkku : 352
EMBHOR : 6 : 1.0 : Peltosirkku : 355
EMBPUS : 6 : 1.0 : Pikkusirkku : 357
EMBRUS : 6 : 1.0 : Pohjansirkku : 356
EMBSCH : 6 : 1.0 : Pajusirkku : 359
EREALP : 6 : 1.0 : Tunturikiuru : 209
ERIRUB : 7 : 1.0 : Punarinta : 232
FALCOL : 5 : 2.0 : Ampuhaukka : 86
FALPER : 4 : 2.5 : Muuttohaukka : 89
FALRUS : 4 : 3.0 : Tunturihaukka : 88
FALSUB : 4 : 2.5 : Nuolihaukka : 87
FALTIN : 7 : 1.5 : Tuulihaukka : 84
FICHYP : 8 : 1.0 : Kirjosieppo : 293
FICPAR : 6 : 1.0 : Pikkusieppo : 291
FRICOE : 6 : 1.0 : Peippo : 331
FRIMON : 7 : 1.0 : Järripeippo : 332
FULATR : 11 : 1.0 : Nokikana : 105
GALCHL : 11 : 1.0 : Liejukana : 104
GALGAL : 4 : 1.0 : Taivaanvuohi : 127
GALMED : 4 : 1.5 : Heinäkurppa : 128
GARGLA : 8 : 1.0 : Närhi : 317
GAVARC : 2 : 2.0 : Kuikka : 2
GAVSTE : 2 : 2.0 : Kaakkuri : 1
GLAPAS : 9 : 2.0 : Varpuspöllö : 179
GRUGRU : 2 : 2.0 : Kurki : 106
HAEOST : 4 : 2.0 : Meriharakka : 108
HALALB : 3 : 2.5 : Merikotka : 67
HIPCAL : 6 : 1.0 : Pikkukultarinta : 999
HIPICT : 6 : 1.0 : Kultarinta : 266
HIRRUS : 6 : 1.0 : Haarapääsky : 212
JYNTOR : 12 : 1.0 : Käenpiika : 194
LAGLAG : 12 : 1.5 : Riekko : 91
LAGMUT : 11 : 1.5 : Kiiruna : 92
LANCOL : 6 : 1.0 : Pikkulepinkäinen : 313
LANEXC : 8 : 1.0 : Isolepinkäinen : 315
LARARG : 3 : 2.0 : Harmaalokki : 151
LARCAN : 3 : 2.0 : Kalalokki : 149
LARFUS : 3 : 2.0 : Selkälokki : 150
LARMAR : 3 : 2.0 : Merilokki : 152
LARMIN : 4 : 1.5 : Pikkulokki : 147
LARRID : 3 : 1.5 : Naurulokki : 148
LIMFAL : 4 : 1.5 : Jänkäsirriäinen : 124
LIMLAP : 4 : 2.0 : Punakuiri : 131
LIMLIM : 4 : 2.0 : Mustapyrstökuiri : 130
LOCFLU : 5 : 1.0 : Viitasirkkalintu : 255
LOCLUS : 5 : 1.0 : Ruokosirkkalintu : 256
LOCNAE : 6 : 1.0 : Pensassirkkalintu : 254
LOXCUR : 5 : 1.0 : Pikkukäpylintu : 343
LOXLEU : 5 : 1.0 : Kirjosiipikäpylintu : 342
LOXPYT : 5 : 1.0 : Isokäpylintu : 345
LULARB : 6 : 1.0 : Kangaskiuru : 207
LUSCYA : 7 : 1.0 : Sinipyrstö : 236
LUSLUS : 6 : 1.0 : Satakieli : 233
LUSSVE : 7 : 1.0 : Sinirinta : 235
LYMMIN : 4 : 1.5 : Jänkäkurppa : 126
LYRTET : 10 : 1.5 : Teeri : 93
MELFUS : 10 : 2.0 : Pilkkasiipi : 58
MELNIG : 10 : 1.5 : Mustalintu : 57
MERALB : 11 : 1.5 : Uivelo : 60
MERMER : 12 : 1.5 : Isokoskelo : 62
MERSER : 12 : 1.5 : Tukkakoskelo : 61
MILMIG : 3 : 2.0 : Haarahaukka : 65
MOTALB : 6 : 1.0 : Västäräkki : 225
MOTCIN : 6 : 1.0 : Virtavästäräkki : 224
MOTCIT : 6 : 1.0 : Sitruunavästäräkki : 223
MOTFLA : 6 : 1.0 : Keltavästäräkki : 222
MUSSTR : 6 : 1.0 : Harmaasieppo : 290
NUCCAR : 5 : 1.0 : Pähkinähakki : 320
NUMARQ : 4 : 1.5 : Kuovi : 133
NUMPHA : 4 : 1.5 : Pikkukuovi : 132
NYCSCA : 10 : 4.0 : Tunturipöllö : 177
OENOEN : 7 : 1.0 : Kivitasku : 241
ORIORI : 5 : 1.0 : Kuhankeittäjä : 312
PANBIA : 7 : 1.0 : Viiksitimali : 294
PANHAL : 4 : 2.0 : Sääksi : 83
PARATE : 11 : 1.0 : Kuusitiainen : 301
PARCAE : 14 : 1.0 : Sinitiainen : 302
PARCIN : 11 : 1.0 : Lapintiainen : 299
PARCRI : 7 : 1.0 : Töyhtötiainen : 300
PARCYA : 11 : 1.0 : Valkopäätiainen : 303
PARMAJ : 12 : 1.0 : Talitiainen : 304
PARMON : 10 : 1.0 : Hömötiainen : 298
PASDOM : 7 : 1.0 : Varpunen : 328
PASMON : 7 : 1.0 : Pikkuvarpunen : 330
PERAPI : 2 : 2.0 : Mehiläishaukka : 64
PERINF : 5 : 1.0 : Kuukkeli : 318
PERPER : 23 : 1.5 : Peltopyy : 96
PHACAR : 4 : 2.5 : Merimetso : 12
PHACOL : 15 : 1.5 : Fasaani : 98
PHALOB : 4 : 1.3 : Vesipääsky : 144
PHIPUG : 4 : 1.0 : Suokukko : 125
PHOOCH : 6 : 1.0 : Mustaleppälintu : 237
PHOPHO : 8 : 1.0 : Leppälintu : 238
PHYBOR : 7 : 1.0 : Lapinuunilintu : 281
PHYCOL : 7 : 1.0 : Tiltaltti : 286
PHYDES : 6 : 1.0 : Idänuunilintu : 280
PHYLUS : 7 : 1.0 : Pajulintu : 287
PHYSIB : 7 : 1.0 : Sirittäjä : 285
PICCAN : 10 : 1.0 : Harmaapäätikka : 195
PICPIC : 8 : 1.0 : Harakka : 319
PICTRI : 5 : 1.0 : Pohjantikka : 203
PINENU : 4 : 1.0 : Taviokuurna : 347
PLENIV : 7 : 1.0 : Pulmunen : 351
PLUAPR : 4 : 2.0 : Kapustarinta : 117
PODAUR : 6 : 1.0 : Mustakurkku-uikku : 6
PODCRI : 6 : 2.0 : Silkkiuikku : 4
PODGRI : 6 : 2.0 : Härkälintu : 5
PORPAR : 13 : 1.0 : Pikkuhuitti : 101
PORPOR : 13 : 1.5 : Luhtahuitti : 100
PRUMOD : 7 : 1.0 : Rautiainen : 229
PYRPYR : 6 : 1.0 : Punatulkku : 348
RALAQU : 11 : 1.5 : Luhtakana : 99
REGREG : 12 : 1.0 : Hippiäinen : 288
REMPEN : 6 : 1.0 : Pussitiainen : 311
RIPRIP : 6 : 1.0 : Törmäpääsky : 210
SAXRUB : 7 : 1.0 : Pensastasku : 239
SAXTOR : 6 : 1.0 : Mustapäätasku : 240
SCORUS : 4 : 2.0 : Lehtokurppa : 129
SERSER : 4 : 1.0 : Keltahemppo : 333
SITEUR : 8 : 1.0 : Pähkinänakkeli : 308
SOMMOL : 6 : 1.0 : Haahka : 54
STEAEA : 3 : 2.0 : Lapintiira : 158
STEALB : 3 : 1.2 : Pikkutiira : 159
STECAS : 3 : 2.5 : Räyskä : 155
STECUS : 2 : 1.5 : Merikihu : 145
STEHIR : 3 : 1.2 : Kalatiira : 157
STELON : 2 : 1.5 : Tunturikihu : 146
STRALU : 6 : 4.0 : Lehtopöllö : 181
STRDEC : 2 : 1.0 : Turkinkyyhky : 170
STRNEB : 6 : 4.0 : Lapinpöllö : 183
STRTUR : 2 : 2.0 : Turturikyyhky : 171
STRURA : 6 : 4.0 : Viirupöllö : 182
STUVUL : 6 : 1.0 : Kottarainen : 326
SURULU : 10 : 2.5 : Hiiripöllö : 178
SYLATR : 6 : 1.0 : Mustapääkerttu : 278
SYLBOR : 6 : 1.0 : Lehtokerttu : 277
SYLCOM : 6 : 1.0 : Pensaskerttu : 276
SYLCUR : 6 : 1.0 : Hernekerttu : 275
SYLNIS : 6 : 1.0 : Kirjokerttu : 274
TACRUF : 6 : 1.0 : Pikku-uikku : 3
TADTAD : 11 : 1.0 : Ristisorsa : 40
TARCYA : 7 : 1.0 : Sinipyrstö : 236
TETBON : 11 : 1.5 : Pyy : 90
TETRIX : 10 : 1.5 : Teeri : 93
TETURO : 11 : 1.5 : Metso : 94
TRIERY : 4 : 1.5 : Mustaviklo : 134
TRIGLA : 4 : 1.5 : Liro : 140
TRINEB : 4 : 2.0 : Valkoviklo : 137
TRIOCH : 4 : 1.5 : Metsäviklo : 139
TRISTA : 4 : 1.5 : Lampiviklo : 136
TRITOT : 4 : 1.5 : Punajalkaviklo : 135
TROTRO : 9 : 1.0 : Peukaloinen : 228
TURILI : 6 : 1.0 : Punakylkirastas : 250
TURMER : 6 : 1.0 : Mustarastas : 246
TURPHI : 6 : 1.0 : Laulurastas : 249
TURPIL : 7 : 1.0 : Räkättirastas : 248
TURTOR : 5 : 1.0 : Sepelrastas : 245
TURVIS : 5 : 1.0 : Kulorastas : 251
URIAAL : 1 : 1.0 : Etelänkiisla : 161
VANVAN : 4 : 1.0 : Töyhtöhyyppä : 119
XENCIN : 4 : 1.5 : Rantakurvi : 141