<?xml version="1.0" encoding="UTF-8"?>
<dia:diagram xmlns:dia="http://www.lysator.liu.se/~alla/dia/">
  <dia:diagramdata>
    <dia:attribute name="background">
      <dia:color val="#ffffff"/>
    </dia:attribute>
    <dia:attribute name="pagebreak">
      <dia:color val="#000099"/>
    </dia:attribute>
    <dia:attribute name="paper">
      <dia:composite type="paper">
        <dia:attribute name="name">
          <dia:string>#A4#</dia:string>
        </dia:attribute>
        <dia:attribute name="tmargin">
          <dia:real val="2.8222000598907471"/>
        </dia:attribute>
        <dia:attribute name="bmargin">
          <dia:real val="2.8222000598907471"/>
        </dia:attribute>
        <dia:attribute name="lmargin">
          <dia:real val="2.8222000598907471"/>
        </dia:attribute>
        <dia:attribute name="rmargin">
          <dia:real val="2.8222000598907471"/>
        </dia:attribute>
        <dia:attribute name="is_portrait">
          <dia:boolean val="true"/>
        </dia:attribute>
        <dia:attribute name="scaling">
          <dia:real val="1"/>
        </dia:attribute>
        <dia:attribute name="fitto">
          <dia:boolean val="false"/>
        </dia:attribute>
      </dia:composite>
    </dia:attribute>
    <dia:attribute name="grid">
      <dia:composite type="grid">
        <dia:attribute name="width_x">
          <dia:real val="1"/>
        </dia:attribute>
        <dia:attribute name="width_y">
          <dia:real val="1"/>
        </dia:attribute>
        <dia:attribute name="visible_x">
          <dia:int val="1"/>
        </dia:attribute>
        <dia:attribute name="visible_y">
          <dia:int val="1"/>
        </dia:attribute>
        <dia:composite type="color"/>
      </dia:composite>
    </dia:attribute>
    <dia:attribute name="color">
      <dia:color val="#d8e5e5"/>
    </dia:attribute>
    <dia:attribute name="guides">
      <dia:composite type="guides">
        <dia:attribute name="hguides"/>
        <dia:attribute name="vguides"/>
      </dia:composite>
    </dia:attribute>
  </dia:diagramdata>
  <dia:layer name="Background" visible="true" active="true">
    <dia:object type="Standard - Text" version="1" id="O0">
      <dia:attribute name="obj_pos">
        <dia:point val="26.15,8.7"/>
      </dia:attribute>
      <dia:attribute name="obj_bb">
        <dia:rectangle val="26.15,8.105;26.15,8.85"/>
      </dia:attribute>
      <dia:attribute name="text">
        <dia:composite type="text">
          <dia:attribute name="string">
            <dia:string>##</dia:string>
          </dia:attribute>
          <dia:attribute name="font">
            <dia:font family="sans" style="0" name="Helvetica"/>
          </dia:attribute>
          <dia:attribute name="height">
            <dia:real val="0.80000000000000004"/>
          </dia:attribute>
          <dia:attribute name="pos">
            <dia:point val="26.15,8.7"/>
          </dia:attribute>
          <dia:attribute name="color">
            <dia:color val="#000000"/>
          </dia:attribute>
          <dia:attribute name="alignment">
            <dia:enum val="0"/>
          </dia:attribute>
        </dia:composite>
      </dia:attribute>
      <dia:attribute name="valign">
        <dia:enum val="3"/>
      </dia:attribute>
    </dia:object>
    <dia:object type="Standard - Text" version="1" id="O1">
      <dia:attribute name="obj_pos">
        <dia:point val="38.25,11.05"/>
      </dia:attribute>
      <dia:attribute name="obj_bb">
        <dia:rectangle val="38.25,10.455;38.25,11.2"/>
      </dia:attribute>
      <dia:attribute name="text">
        <dia:composite type="text">
          <dia:attribute name="string">
            <dia:string>##</dia:string>
          </dia:attribute>
          <dia:attribute name="font">
            <dia:font family="sans" style="0" name="Helvetica"/>
          </dia:attribute>
          <dia:attribute name="height">
            <dia:real val="0.80000000000000004"/>
          </dia:attribute>
          <dia:attribute name="pos">
            <dia:point val="38.25,11.05"/>
          </dia:attribute>
          <dia:attribute name="color">
            <dia:color val="#000000"/>
          </dia:attribute>
          <dia:attribute name="alignment">
            <dia:enum val="0"/>
          </dia:attribute>
        </dia:composite>
      </dia:attribute>
      <dia:attribute name="valign">
        <dia:enum val="3"/>
      </dia:attribute>
    </dia:object>
    <dia:object type="Standard - Text" version="1" id="O2">
      <dia:attribute name="obj_pos">
        <dia:point val="26.45,6.6"/>
      </dia:attribute>
      <dia:attribute name="obj_bb">
        <dia:rectangle val="26.45,5.9175;30.275,6.7725"/>
      </dia:attribute>
      <dia:attribute name="text">
        <dia:composite type="text">
          <dia:attribute name="string">
            <dia:string>#REQUEST#</dia:string>
          </dia:attribute>
          <dia:attribute name="font">
            <dia:font family="sans" style="80" name="Helvetica-Bold"/>
          </dia:attribute>
          <dia:attribute name="height">
            <dia:real val="0.91722222756780225"/>
          </dia:attribute>
          <dia:attribute name="pos">
            <dia:point val="26.45,6.6"/>
          </dia:attribute>
          <dia:attribute name="color">
            <dia:color val="#000000"/>
          </dia:attribute>
          <dia:attribute name="alignment">
            <dia:enum val="0"/>
          </dia:attribute>
        </dia:composite>
      </dia:attribute>
      <dia:attribute name="valign">
        <dia:enum val="3"/>
      </dia:attribute>
    </dia:object>
    <dia:object type="UML - Branch" version="0" id="O3">
      <dia:attribute name="obj_pos">
        <dia:point val="27,9.7"/>
      </dia:attribute>
      <dia:attribute name="obj_bb">
        <dia:rectangle val="26.9293,9.62929;29.0707,11.7707"/>
      </dia:attribute>
      <dia:attribute name="meta">
        <dia:composite type="dict"/>
      </dia:attribute>
      <dia:attribute name="elem_corner">
        <dia:point val="27,9.7"/>
      </dia:attribute>
      <dia:attribute name="elem_width">
        <dia:real val="2"/>
      </dia:attribute>
      <dia:attribute name="elem_height">
        <dia:real val="2"/>
      </dia:attribute>
      <dia:attribute name="line_colour">
        <dia:color val="#000000"/>
      </dia:attribute>
      <dia:attribute name="fill_colour">
        <dia:color val="#ffffff"/>
      </dia:attribute>
    </dia:object>
    <dia:object type="UML - Message" version="0" id="O4">
      <dia:attribute name="obj_pos">
        <dia:point val="27.9,7"/>
      </dia:attribute>
      <dia:attribute name="obj_bb">
        <dia:rectangle val="27.5984,6.94818;28.4016,9.76477"/>
      </dia:attribute>
      <dia:attribute name="meta">
        <dia:composite type="dict"/>
      </dia:attribute>
      <dia:attribute name="conn_endpoints">
        <dia:point val="27.9,7"/>
        <dia:point val="28,9.7"/>
      </dia:attribute>
      <dia:attribute name="text_colour">
        <dia:color val="#000000"/>
      </dia:attribute>
      <dia:attribute name="line_colour">
        <dia:color val="#000000"/>
      </dia:attribute>
      <dia:attribute name="text">
        <dia:string>##</dia:string>
      </dia:attribute>
      <dia:attribute name="type">
        <dia:enum val="0"/>
      </dia:attribute>
      <dia:attribute name="text_pos">
        <dia:point val="27.95,8.85"/>
      </dia:attribute>
      <dia:connections>
        <dia:connection handle="1" to="O3" connection="1"/>
      </dia:connections>
    </dia:object>
    <dia:object type="UML - Message" version="0" id="O5">
      <dia:attribute name="obj_pos">
        <dia:point val="29,10.7"/>
      </dia:attribute>
      <dia:attribute name="obj_bb">
        <dia:rectangle val="28.95,10.3;37.65,11.4"/>
      </dia:attribute>
      <dia:attribute name="meta">
        <dia:composite type="dict"/>
      </dia:attribute>
      <dia:attribute name="conn_endpoints">
        <dia:point val="29,10.7"/>
        <dia:point val="37.6,10.7"/>
      </dia:attribute>
      <dia:attribute name="text_colour">
        <dia:color val="#000000"/>
      </dia:attribute>
      <dia:attribute name="line_colour">
        <dia:color val="#000000"/>
      </dia:attribute>
      <dia:attribute name="text">
        <dia:string>#authenticated#</dia:string>
      </dia:attribute>
      <dia:attribute name="type">
        <dia:enum val="0"/>
      </dia:attribute>
      <dia:attribute name="text_pos">
        <dia:point val="33.3,11.2"/>
      </dia:attribute>
      <dia:connections>
        <dia:connection handle="0" to="O3" connection="2"/>
        <dia:connection handle="1" to="O16" connection="0"/>
      </dia:connections>
    </dia:object>
    <dia:object type="UML - Message" version="0" id="O6">
      <dia:attribute name="obj_pos">
        <dia:point val="28,11.7"/>
      </dia:attribute>
      <dia:attribute name="obj_bb">
        <dia:rectangle val="25.1363,11.65;30.8638,16.5"/>
      </dia:attribute>
      <dia:attribute name="meta">
        <dia:composite type="dict"/>
      </dia:attribute>
      <dia:attribute name="conn_endpoints">
        <dia:point val="28,11.7"/>
        <dia:point val="28,16.45"/>
      </dia:attribute>
      <dia:attribute name="text_colour">
        <dia:color val="#000000"/>
      </dia:attribute>
      <dia:attribute name="line_colour">
        <dia:color val="#000000"/>
      </dia:attribute>
      <dia:attribute name="text">
        <dia:string>#not authenticated#</dia:string>
      </dia:attribute>
      <dia:attribute name="type">
        <dia:enum val="0"/>
      </dia:attribute>
      <dia:attribute name="text_pos">
        <dia:point val="28,14.575"/>
      </dia:attribute>
      <dia:connections>
        <dia:connection handle="0" to="O3" connection="3"/>
        <dia:connection handle="1" to="O7" connection="1"/>
      </dia:connections>
    </dia:object>
    <dia:object type="UML - Branch" version="0" id="O7">
      <dia:attribute name="obj_pos">
        <dia:point val="27,16.45"/>
      </dia:attribute>
      <dia:attribute name="obj_bb">
        <dia:rectangle val="26.9293,16.3793;29.0707,18.5207"/>
      </dia:attribute>
      <dia:attribute name="meta">
        <dia:composite type="dict"/>
      </dia:attribute>
      <dia:attribute name="elem_corner">
        <dia:point val="27,16.45"/>
      </dia:attribute>
      <dia:attribute name="elem_width">
        <dia:real val="2"/>
      </dia:attribute>
      <dia:attribute name="elem_height">
        <dia:real val="2"/>
      </dia:attribute>
      <dia:attribute name="line_colour">
        <dia:color val="#000000"/>
      </dia:attribute>
      <dia:attribute name="fill_colour">
        <dia:color val="#ffffff"/>
      </dia:attribute>
    </dia:object>
    <dia:object type="UML - Message" version="0" id="O8">
      <dia:attribute name="obj_pos">
        <dia:point val="27,17.45"/>
      </dia:attribute>
      <dia:attribute name="obj_bb">
        <dia:rectangle val="17.0668,17.05;27.05,18.15"/>
      </dia:attribute>
      <dia:attribute name="meta">
        <dia:composite type="dict"/>
      </dia:attribute>
      <dia:attribute name="conn_endpoints">
        <dia:point val="27,17.45"/>
        <dia:point val="17.1168,17.45"/>
      </dia:attribute>
      <dia:attribute name="text_colour">
        <dia:color val="#000000"/>
      </dia:attribute>
      <dia:attribute name="line_colour">
        <dia:color val="#000000"/>
      </dia:attribute>
      <dia:attribute name="text">
        <dia:string>#auth params not given#</dia:string>
      </dia:attribute>
      <dia:attribute name="type">
        <dia:enum val="0"/>
      </dia:attribute>
      <dia:attribute name="text_pos">
        <dia:point val="22.0584,17.95"/>
      </dia:attribute>
      <dia:connections>
        <dia:connection handle="0" to="O7" connection="0"/>
        <dia:connection handle="1" to="O9" connection="8"/>
      </dia:connections>
    </dia:object>
    <dia:object type="UML - State" version="0" id="O9">
      <dia:attribute name="obj_pos">
        <dia:point val="9.55,16.55"/>
      </dia:attribute>
      <dia:attribute name="obj_bb">
        <dia:rectangle val="9.5,16.5;17.1175,18.4"/>
      </dia:attribute>
      <dia:attribute name="meta">
        <dia:composite type="dict"/>
      </dia:attribute>
      <dia:attribute name="elem_corner">
        <dia:point val="9.55,16.55"/>
      </dia:attribute>
      <dia:attribute name="elem_width">
        <dia:real val="7.5175000000000001"/>
      </dia:attribute>
      <dia:attribute name="elem_height">
        <dia:real val="1.8"/>
      </dia:attribute>
      <dia:attribute name="line_colour">
        <dia:color val="#000000"/>
      </dia:attribute>
      <dia:attribute name="fill_colour">
        <dia:color val="#d8e5e5"/>
      </dia:attribute>
      <dia:attribute name="text">
        <dia:composite type="text">
          <dia:attribute name="string">
            <dia:string>#Redirect: Lintuvaara#</dia:string>
          </dia:attribute>
          <dia:attribute name="font">
            <dia:font family="sans" style="0" name="Helvetica"/>
          </dia:attribute>
          <dia:attribute name="height">
            <dia:real val="0.80000000000000004"/>
          </dia:attribute>
          <dia:attribute name="pos">
            <dia:point val="13.3088,17.645"/>
          </dia:attribute>
          <dia:attribute name="color">
            <dia:color val="#000000"/>
          </dia:attribute>
          <dia:attribute name="alignment">
            <dia:enum val="1"/>
          </dia:attribute>
        </dia:composite>
      </dia:attribute>
      <dia:attribute name="entry_action">
        <dia:string>##</dia:string>
      </dia:attribute>
      <dia:attribute name="do_action">
        <dia:string>##</dia:string>
      </dia:attribute>
      <dia:attribute name="exit_action">
        <dia:string>##</dia:string>
      </dia:attribute>
    </dia:object>
    <dia:object type="UML - Message" version="0" id="O10">
      <dia:attribute name="obj_pos">
        <dia:point val="28,18.45"/>
      </dia:attribute>
      <dia:attribute name="obj_bb">
        <dia:rectangle val="25.0088,18.3995;31.0413,23.6039"/>
      </dia:attribute>
      <dia:attribute name="meta">
        <dia:composite type="dict"/>
      </dia:attribute>
      <dia:attribute name="conn_endpoints">
        <dia:point val="28,18.45"/>
        <dia:point val="28.05,23.55"/>
      </dia:attribute>
      <dia:attribute name="text_colour">
        <dia:color val="#000000"/>
      </dia:attribute>
      <dia:attribute name="line_colour">
        <dia:color val="#000000"/>
      </dia:attribute>
      <dia:attribute name="text">
        <dia:string>#auth params given#</dia:string>
      </dia:attribute>
      <dia:attribute name="type">
        <dia:enum val="0"/>
      </dia:attribute>
      <dia:attribute name="text_pos">
        <dia:point val="28.025,21.5"/>
      </dia:attribute>
      <dia:connections>
        <dia:connection handle="0" to="O7" connection="3"/>
        <dia:connection handle="1" to="O11" connection="1"/>
      </dia:connections>
    </dia:object>
    <dia:object type="UML - Branch" version="0" id="O11">
      <dia:attribute name="obj_pos">
        <dia:point val="27.05,23.55"/>
      </dia:attribute>
      <dia:attribute name="obj_bb">
        <dia:rectangle val="26.9793,23.4793;29.1207,25.6207"/>
      </dia:attribute>
      <dia:attribute name="meta">
        <dia:composite type="dict"/>
      </dia:attribute>
      <dia:attribute name="elem_corner">
        <dia:point val="27.05,23.55"/>
      </dia:attribute>
      <dia:attribute name="elem_width">
        <dia:real val="2"/>
      </dia:attribute>
      <dia:attribute name="elem_height">
        <dia:real val="2"/>
      </dia:attribute>
      <dia:attribute name="line_colour">
        <dia:color val="#000000"/>
      </dia:attribute>
      <dia:attribute name="fill_colour">
        <dia:color val="#ffffff"/>
      </dia:attribute>
    </dia:object>
    <dia:object type="UML - State" version="0" id="O12">
      <dia:attribute name="obj_pos">
        <dia:point val="10.85,23.6"/>
      </dia:attribute>
      <dia:attribute name="obj_bb">
        <dia:rectangle val="10.8,23.55;15.6475,25.45"/>
      </dia:attribute>
      <dia:attribute name="meta">
        <dia:composite type="dict"/>
      </dia:attribute>
      <dia:attribute name="elem_corner">
        <dia:point val="10.85,23.6"/>
      </dia:attribute>
      <dia:attribute name="elem_width">
        <dia:real val="4.7475000000000005"/>
      </dia:attribute>
      <dia:attribute name="elem_height">
        <dia:real val="1.8"/>
      </dia:attribute>
      <dia:attribute name="line_colour">
        <dia:color val="#000000"/>
      </dia:attribute>
      <dia:attribute name="fill_colour">
        <dia:color val="#ffffff"/>
      </dia:attribute>
      <dia:attribute name="text">
        <dia:composite type="text">
          <dia:attribute name="string">
            <dia:string>#log attempt#</dia:string>
          </dia:attribute>
          <dia:attribute name="font">
            <dia:font family="sans" style="0" name="Helvetica"/>
          </dia:attribute>
          <dia:attribute name="height">
            <dia:real val="0.80000000000000004"/>
          </dia:attribute>
          <dia:attribute name="pos">
            <dia:point val="13.2237,24.695"/>
          </dia:attribute>
          <dia:attribute name="color">
            <dia:color val="#000000"/>
          </dia:attribute>
          <dia:attribute name="alignment">
            <dia:enum val="1"/>
          </dia:attribute>
        </dia:composite>
      </dia:attribute>
      <dia:attribute name="entry_action">
        <dia:string>##</dia:string>
      </dia:attribute>
      <dia:attribute name="do_action">
        <dia:string>##</dia:string>
      </dia:attribute>
      <dia:attribute name="exit_action">
        <dia:string>##</dia:string>
      </dia:attribute>
    </dia:object>
    <dia:object type="UML - Message" version="0" id="O13">
      <dia:attribute name="obj_pos">
        <dia:point val="27.05,24.55"/>
      </dia:attribute>
      <dia:attribute name="obj_bb">
        <dia:rectangle val="15.5458,24.0998;27.1002,25.225"/>
      </dia:attribute>
      <dia:attribute name="meta">
        <dia:composite type="dict"/>
      </dia:attribute>
      <dia:attribute name="conn_endpoints">
        <dia:point val="27.05,24.55"/>
        <dia:point val="15.5975,24.5"/>
      </dia:attribute>
      <dia:attribute name="text_colour">
        <dia:color val="#000000"/>
      </dia:attribute>
      <dia:attribute name="line_colour">
        <dia:color val="#000000"/>
      </dia:attribute>
      <dia:attribute name="text">
        <dia:string>#auth unsuccessful#</dia:string>
      </dia:attribute>
      <dia:attribute name="type">
        <dia:enum val="0"/>
      </dia:attribute>
      <dia:attribute name="text_pos">
        <dia:point val="21.3238,25.025"/>
      </dia:attribute>
      <dia:connections>
        <dia:connection handle="0" to="O11" connection="0"/>
        <dia:connection handle="1" to="O12" connection="4"/>
      </dia:connections>
    </dia:object>
    <dia:object type="UML - Message" version="0" id="O14">
      <dia:attribute name="obj_pos">
        <dia:point val="13.2351,23.5568"/>
      </dia:attribute>
      <dia:attribute name="obj_bb">
        <dia:rectangle val="12.8968,18.3384;13.698,23.6074"/>
      </dia:attribute>
      <dia:attribute name="meta">
        <dia:composite type="dict"/>
      </dia:attribute>
      <dia:attribute name="conn_endpoints">
        <dia:point val="13.2351,23.5568"/>
        <dia:point val="13.2974,18.3932"/>
      </dia:attribute>
      <dia:attribute name="text_colour">
        <dia:color val="#000000"/>
      </dia:attribute>
      <dia:attribute name="line_colour">
        <dia:color val="#000000"/>
      </dia:attribute>
      <dia:attribute name="text">
        <dia:string>##</dia:string>
      </dia:attribute>
      <dia:attribute name="type">
        <dia:enum val="0"/>
      </dia:attribute>
      <dia:attribute name="text_pos">
        <dia:point val="13.2662,21.475"/>
      </dia:attribute>
      <dia:connections>
        <dia:connection handle="0" to="O12" connection="8"/>
        <dia:connection handle="1" to="O9" connection="8"/>
      </dia:connections>
    </dia:object>
    <dia:object type="UML - Note" version="0" id="O15">
      <dia:attribute name="obj_pos">
        <dia:point val="9.95,7.25"/>
      </dia:attribute>
      <dia:attribute name="obj_bb">
        <dia:rectangle val="9.95,7.25;20.86,12.15"/>
      </dia:attribute>
      <dia:attribute name="meta">
        <dia:composite type="dict"/>
      </dia:attribute>
      <dia:attribute name="elem_corner">
        <dia:point val="9.95,7.25"/>
      </dia:attribute>
      <dia:attribute name="elem_width">
        <dia:real val="10.91"/>
      </dia:attribute>
      <dia:attribute name="elem_height">
        <dia:real val="4.8999999999999995"/>
      </dia:attribute>
      <dia:attribute name="line_width">
        <dia:real val="0"/>
      </dia:attribute>
      <dia:attribute name="line_colour">
        <dia:color val="#000000"/>
      </dia:attribute>
      <dia:attribute name="fill_colour">
        <dia:color val="#ffffff"/>
      </dia:attribute>
      <dia:attribute name="text">
        <dia:composite type="text">
          <dia:attribute name="string">
            <dia:string>#Lintuvaara authentication.
Auth params:
key: key
iv: initial vector
data: encrypted data#</dia:string>
          </dia:attribute>
          <dia:attribute name="font">
            <dia:font family="monospace" style="0" name="Courier"/>
          </dia:attribute>
          <dia:attribute name="height">
            <dia:real val="0.80000000000000004"/>
          </dia:attribute>
          <dia:attribute name="pos">
            <dia:point val="10.25,8.445"/>
          </dia:attribute>
          <dia:attribute name="color">
            <dia:color val="#000000"/>
          </dia:attribute>
          <dia:attribute name="alignment">
            <dia:enum val="0"/>
          </dia:attribute>
        </dia:composite>
      </dia:attribute>
    </dia:object>
    <dia:object type="UML - Branch" version="0" id="O16">
      <dia:attribute name="obj_pos">
        <dia:point val="37.6,9.7"/>
      </dia:attribute>
      <dia:attribute name="obj_bb">
        <dia:rectangle val="37.5293,9.62929;39.6707,11.7707"/>
      </dia:attribute>
      <dia:attribute name="meta">
        <dia:composite type="dict"/>
      </dia:attribute>
      <dia:attribute name="elem_corner">
        <dia:point val="37.6,9.7"/>
      </dia:attribute>
      <dia:attribute name="elem_width">
        <dia:real val="2"/>
      </dia:attribute>
      <dia:attribute name="elem_height">
        <dia:real val="2"/>
      </dia:attribute>
      <dia:attribute name="line_colour">
        <dia:color val="#000000"/>
      </dia:attribute>
      <dia:attribute name="fill_colour">
        <dia:color val="#ffffff"/>
      </dia:attribute>
    </dia:object>
    <dia:object type="UML - Message" version="0" id="O17">
      <dia:attribute name="obj_pos">
        <dia:point val="29.05,24.55"/>
      </dia:attribute>
      <dia:attribute name="obj_bb">
        <dia:rectangle val="28.9812,10.4473;37.9666,24.6188"/>
      </dia:attribute>
      <dia:attribute name="meta">
        <dia:composite type="dict"/>
      </dia:attribute>
      <dia:attribute name="conn_endpoints">
        <dia:point val="29.05,24.55"/>
        <dia:point val="37.6,10.7"/>
      </dia:attribute>
      <dia:attribute name="text_colour">
        <dia:color val="#000000"/>
      </dia:attribute>
      <dia:attribute name="line_colour">
        <dia:color val="#000000"/>
      </dia:attribute>
      <dia:attribute name="text">
        <dia:string>#auth successful#</dia:string>
      </dia:attribute>
      <dia:attribute name="type">
        <dia:enum val="0"/>
      </dia:attribute>
      <dia:attribute name="text_pos">
        <dia:point val="34,17.45"/>
      </dia:attribute>
      <dia:connections>
        <dia:connection handle="0" to="O11" connection="2"/>
        <dia:connection handle="1" to="O16" connection="0"/>
      </dia:connections>
    </dia:object>
    <dia:object type="UML - Message" version="0" id="O18">
      <dia:attribute name="obj_pos">
        <dia:point val="39.6,10.7"/>
      </dia:attribute>
      <dia:attribute name="obj_bb">
        <dia:rectangle val="39.55,10.3;48.25,11.4"/>
      </dia:attribute>
      <dia:attribute name="meta">
        <dia:composite type="dict"/>
      </dia:attribute>
      <dia:attribute name="conn_endpoints">
        <dia:point val="39.6,10.7"/>
        <dia:point val="48.2,10.7"/>
      </dia:attribute>
      <dia:attribute name="text_colour">
        <dia:color val="#000000"/>
      </dia:attribute>
      <dia:attribute name="line_colour">
        <dia:color val="#000000"/>
      </dia:attribute>
      <dia:attribute name="text">
        <dia:string>#redirect URL given#</dia:string>
      </dia:attribute>
      <dia:attribute name="type">
        <dia:enum val="0"/>
      </dia:attribute>
      <dia:attribute name="text_pos">
        <dia:point val="43.9,11.2"/>
      </dia:attribute>
      <dia:connections>
        <dia:connection handle="0" to="O16" connection="2"/>
        <dia:connection handle="1" to="O19" connection="3"/>
      </dia:connections>
    </dia:object>
    <dia:object type="UML - State" version="0" id="O19">
      <dia:attribute name="obj_pos">
        <dia:point val="48.2,9.8"/>
      </dia:attribute>
      <dia:attribute name="obj_bb">
        <dia:rectangle val="48.15,9.75;53.6225,11.65"/>
      </dia:attribute>
      <dia:attribute name="meta">
        <dia:composite type="dict"/>
      </dia:attribute>
      <dia:attribute name="elem_corner">
        <dia:point val="48.2,9.8"/>
      </dia:attribute>
      <dia:attribute name="elem_width">
        <dia:real val="5.3725000000000005"/>
      </dia:attribute>
      <dia:attribute name="elem_height">
        <dia:real val="1.8"/>
      </dia:attribute>
      <dia:attribute name="line_colour">
        <dia:color val="#000000"/>
      </dia:attribute>
      <dia:attribute name="fill_colour">
        <dia:color val="#d8e5e5"/>
      </dia:attribute>
      <dia:attribute name="text">
        <dia:composite type="text">
          <dia:attribute name="string">
            <dia:string>#Redirect: URL#</dia:string>
          </dia:attribute>
          <dia:attribute name="font">
            <dia:font family="sans" style="0" name="Helvetica"/>
          </dia:attribute>
          <dia:attribute name="height">
            <dia:real val="0.80000000000000004"/>
          </dia:attribute>
          <dia:attribute name="pos">
            <dia:point val="50.8863,10.895"/>
          </dia:attribute>
          <dia:attribute name="color">
            <dia:color val="#000000"/>
          </dia:attribute>
          <dia:attribute name="alignment">
            <dia:enum val="1"/>
          </dia:attribute>
        </dia:composite>
      </dia:attribute>
      <dia:attribute name="entry_action">
        <dia:string>##</dia:string>
      </dia:attribute>
      <dia:attribute name="do_action">
        <dia:string>##</dia:string>
      </dia:attribute>
      <dia:attribute name="exit_action">
        <dia:string>##</dia:string>
      </dia:attribute>
    </dia:object>
    <dia:object type="UML - State" version="0" id="O20">
      <dia:attribute name="obj_pos">
        <dia:point val="38.65,16.05"/>
      </dia:attribute>
      <dia:attribute name="obj_bb">
        <dia:rectangle val="38.6,16;52.3425,17.9"/>
      </dia:attribute>
      <dia:attribute name="meta">
        <dia:composite type="dict"/>
      </dia:attribute>
      <dia:attribute name="elem_corner">
        <dia:point val="38.65,16.05"/>
      </dia:attribute>
      <dia:attribute name="elem_width">
        <dia:real val="13.6425"/>
      </dia:attribute>
      <dia:attribute name="elem_height">
        <dia:real val="1.8"/>
      </dia:attribute>
      <dia:attribute name="line_colour">
        <dia:color val="#000000"/>
      </dia:attribute>
      <dia:attribute name="fill_colour">
        <dia:color val="#d8e5e5"/>
      </dia:attribute>
      <dia:attribute name="text">
        <dia:composite type="text">
          <dia:attribute name="string">
            <dia:string>#Redirect: Application specific frontpage#</dia:string>
          </dia:attribute>
          <dia:attribute name="font">
            <dia:font family="sans" style="0" name="Helvetica"/>
          </dia:attribute>
          <dia:attribute name="height">
            <dia:real val="0.80000000000000004"/>
          </dia:attribute>
          <dia:attribute name="pos">
            <dia:point val="45.4713,17.145"/>
          </dia:attribute>
          <dia:attribute name="color">
            <dia:color val="#000000"/>
          </dia:attribute>
          <dia:attribute name="alignment">
            <dia:enum val="1"/>
          </dia:attribute>
        </dia:composite>
      </dia:attribute>
      <dia:attribute name="entry_action">
        <dia:string>##</dia:string>
      </dia:attribute>
      <dia:attribute name="do_action">
        <dia:string>##</dia:string>
      </dia:attribute>
      <dia:attribute name="exit_action">
        <dia:string>##</dia:string>
      </dia:attribute>
    </dia:object>
    <dia:object type="UML - Message" version="0" id="O21">
      <dia:attribute name="obj_pos">
        <dia:point val="38.6,11.7"/>
      </dia:attribute>
      <dia:attribute name="obj_bb">
        <dia:rectangle val="38.2495,11.6494;39.0505,16.1046"/>
      </dia:attribute>
      <dia:attribute name="meta">
        <dia:composite type="dict"/>
      </dia:attribute>
      <dia:attribute name="conn_endpoints">
        <dia:point val="38.6,11.7"/>
        <dia:point val="38.65,16.05"/>
      </dia:attribute>
      <dia:attribute name="text_colour">
        <dia:color val="#000000"/>
      </dia:attribute>
      <dia:attribute name="line_colour">
        <dia:color val="#000000"/>
      </dia:attribute>
      <dia:attribute name="text">
        <dia:string>##</dia:string>
      </dia:attribute>
      <dia:attribute name="type">
        <dia:enum val="0"/>
      </dia:attribute>
      <dia:attribute name="text_pos">
        <dia:point val="38.625,14.375"/>
      </dia:attribute>
      <dia:connections>
        <dia:connection handle="0" to="O16" connection="3"/>
        <dia:connection handle="1" to="O20" connection="0"/>
      </dia:connections>
    </dia:object>
  </dia:layer>
</dia:diagram>
